^C:\USERS\SONIC\DOCUMENTS\VISUAL STUDIO 2010\PROJECTS\LAB3\LAB3\DEBUG\LAB3_MANIFEST.RC
C:\USERS\SONIC\DOCUMENTS\VISUAL STUDIO 2010\PROJECTS\LAB3\LAB3\DEBUG\LAB3.EXE.EMBED.MANIFEST
^E:\172\COMPUTERGRAPHIC\TUTLAB\GIT\DOHOAMAYTINH172\LAB2\DEBUG\LAB3_MANIFEST.RC
E:\172\COMPUTERGRAPHIC\TUTLAB\GIT\DOHOAMAYTINH172\LAB2\DEBUG\LAB3.EXE.EMBED.MANIFEST
^E:\172\COMPUTERGRAPHIC\TUTLAB\GIT\DOHOAMAYTINH172\LAB2 - COPY\DEBUG\LAB3_MANIFEST.RC
E:\172\COMPUTERGRAPHIC\TUTLAB\GIT\DOHOAMAYTINH172\LAB2 - COPY\DEBUG\LAB3.EXE.EMBED.MANIFEST
