^C:\USERS\SONIC\DOCUMENTS\VISUAL STUDIO 2010\PROJECTS\LAB3\LAB3\DEBUG\LAB2.OBJ|C:\USERS\SONIC\DOCUMENTS\VISUAL STUDIO 2010\PROJECTS\LAB3\LAB3\DEBUG\LAB3.EXE.EMBED.MANIFEST.RES|C:\USERS\SONIC\DOCUMENTS\VISUAL STUDIO 2010\PROJECTS\LAB3\LAB3\DEBUG\MESH.OBJ|C:\USERS\SONIC\DOCUMENTS\VISUAL STUDIO 2010\PROJECTS\LAB3\LAB3\DEBUG\STDAFX.OBJ|C:\USERS\SONIC\DOCUMENTS\VISUAL STUDIO 2010\PROJECTS\LAB3\LAB3\DEBUG\SUPPORTCLASS.OBJ
/ERRORREPORT:PROMPT /OUT:"C:\Users\sonic\documents\visual studio 2010\Projects\Lab3\Debug\Lab3.exe" /INCREMENTAL /NOLOGO kernel32.lib user32.lib gdi32.lib winspool.lib comdlg32.lib advapi32.lib shell32.lib ole32.lib oleaut32.lib uuid.lib odbc32.lib odbccp32.lib /MANIFEST /ManifestFile:"Debug\Lab3.exe.intermediate.manifest" /MANIFESTUAC:"level='asInvoker' uiAccess='false'" /DEBUG /PDB:"C:\Users\sonic\documents\visual studio 2010\Projects\Lab3\Debug\Lab3.pdb" /SUBSYSTEM:CONSOLE /TLBID:1 /DYNAMICBASE /NXCOMPAT /IMPLIB:"C:\Users\sonic\documents\visual studio 2010\Projects\Lab3\Debug\Lab3.lib" /MACHINE:X86 Debug\Lab3.exe.embed.manifest.res
Debug\supportClass.obj
Debug\Lab2.obj
Debug\Mesh.obj
Debug\stdafx.obj
^E:\172\COMPUTERGRAPHIC\TUTLAB\GIT\DOHOAMAYTINH172\LAB2\DEBUG\LAB2.OBJ|E:\172\COMPUTERGRAPHIC\TUTLAB\GIT\DOHOAMAYTINH172\LAB2\DEBUG\LAB3.EXE.EMBED.MANIFEST.RES|E:\172\COMPUTERGRAPHIC\TUTLAB\GIT\DOHOAMAYTINH172\LAB2\DEBUG\MESH.OBJ|E:\172\COMPUTERGRAPHIC\TUTLAB\GIT\DOHOAMAYTINH172\LAB2\DEBUG\STDAFX.OBJ|E:\172\COMPUTERGRAPHIC\TUTLAB\GIT\DOHOAMAYTINH172\LAB2\DEBUG\SUPPORTCLASS.OBJ
/ERRORREPORT:PROMPT /OUT:"E:\172\ComputerGraphic\TutLab\git\DoHoaMayTinh172\lab2\Debug\Lab3.exe" /INCREMENTAL /NOLOGO kernel32.lib user32.lib gdi32.lib winspool.lib comdlg32.lib advapi32.lib shell32.lib ole32.lib oleaut32.lib uuid.lib odbc32.lib odbccp32.lib /MANIFEST /ManifestFile:"Debug\Lab3.exe.intermediate.manifest" /MANIFESTUAC:"level='asInvoker' uiAccess='false'" /DEBUG /PDB:"E:\172\ComputerGraphic\TutLab\git\DoHoaMayTinh172\lab2\Debug\Lab3.pdb" /SUBSYSTEM:CONSOLE /TLBID:1 /DYNAMICBASE /NXCOMPAT /IMPLIB:"E:\172\ComputerGraphic\TutLab\git\DoHoaMayTinh172\lab2\Debug\Lab3.lib" /MACHINE:X86 Debug\Lab3.exe.embed.manifest.res
Debug\Lab2.obj
Debug\Mesh.obj
Debug\stdafx.obj
Debug\supportClass.obj
