^C:\USERS\SONIC\DOCUMENTS\VISUAL STUDIO 2010\PROJECTS\LAB3\LAB3\DEBUG\LAB3.EXE.INTERMEDIATE.MANIFEST
/nologo /verbose /out:"Debug\Lab3.exe.embed.manifest" /manifest Debug\Lab3.exe.intermediate.manifest
^E:\172\COMPUTERGRAPHIC\TUTLAB\GIT\DOHOAMAYTINH172\LAB2\DEBUG\LAB3.EXE.INTERMEDIATE.MANIFEST
/nologo /verbose /out:"Debug\Lab3.exe.embed.manifest" /manifest Debug\Lab3.exe.intermediate.manifest
^E:\172\COMPUTERGRAPHIC\TUTLAB\GIT\DOHOAMAYTINH172\LAB2 - COPY\DEBUG\LAB3.EXE.INTERMEDIATE.MANIFEST
/nologo /verbose /out:"Debug\Lab3.exe.embed.manifest" /manifest Debug\Lab3.exe.intermediate.manifest
^E:\172\COMPUTERGRAPHIC\TUTLAB\GIT\DOHOAMAYTINH172\LAB4\DEBUG\LAB3.EXE.INTERMEDIATE.MANIFEST
/nologo /verbose /out:"Debug\Lab3.exe.embed.manifest" /manifest Debug\Lab3.exe.intermediate.manifest
